^D:\CODE\C++\SALARY\SALARY\SALARY\MAIN.CPP
C:\WINDOWS\GLOBALIZATION\SORTING\SORTDEFAULT.NLS
E:\VISUAL STUDIO\VC\TOOLS\MSVC\14.29.30133\BIN\HOSTX86\X86\1033\CLUI.DLL
C:\WINDOWS\SYSTEM32\TZRES.DLL
E:\VISUAL STUDIO\VC\TOOLS\MSVC\14.29.30133\INCLUDE\IOSTREAM
E:\VISUAL STUDIO\VC\TOOLS\MSVC\14.29.30133\INCLUDE\YVALS_CORE.H
E:\VISUAL STUDIO\VC\TOOLS\MSVC\14.29.30133\INCLUDE\VCRUNTIME.H
E:\VISUAL STUDIO\VC\TOOLS\MSVC\14.29.30133\INCLUDE\SAL.H
E:\VISUAL STUDIO\VC\TOOLS\MSVC\14.29.30133\INCLUDE\CONCURRENCYSAL.H
E:\VISUAL STUDIO\VC\TOOLS\MSVC\14.29.30133\INCLUDE\VADEFS.H
E:\VISUAL STUDIO\VC\TOOLS\MSVC\14.29.30133\INCLUDE\XKEYCHECK.H
E:\VISUAL STUDIO\VC\TOOLS\MSVC\14.29.30133\INCLUDE\ISTREAM
E:\VISUAL STUDIO\VC\TOOLS\MSVC\14.29.30133\INCLUDE\OSTREAM
E:\VISUAL STUDIO\VC\TOOLS\MSVC\14.29.30133\INCLUDE\IOS
E:\VISUAL STUDIO\VC\TOOLS\MSVC\14.29.30133\INCLUDE\XLOCNUM
E:\VISUAL STUDIO\VC\TOOLS\MSVC\14.29.30133\INCLUDE\CLIMITS
E:\VISUAL STUDIO\VC\TOOLS\MSVC\14.29.30133\INCLUDE\LIMITS.H
E:\VISUAL STUDIO\VC\TOOLS\MSVC\14.29.30133\INCLUDE\CMATH
E:\VISUAL STUDIO\VC\TOOLS\MSVC\14.29.30133\INCLUDE\YVALS.H
C:\PROGRAM FILES (X86)\WINDOWS KITS\10\INCLUDE\10.0.19041.0\UCRT\CRTDBG.H
C:\PROGRAM FILES (X86)\WINDOWS KITS\10\INCLUDE\10.0.19041.0\UCRT\CORECRT.H
E:\VISUAL STUDIO\VC\TOOLS\MSVC\14.29.30133\INCLUDE\VCRUNTIME_NEW_DEBUG.H
E:\VISUAL STUDIO\VC\TOOLS\MSVC\14.29.30133\INCLUDE\VCRUNTIME_NEW.H
E:\VISUAL STUDIO\VC\TOOLS\MSVC\14.29.30133\INCLUDE\CRTDEFS.H
E:\VISUAL STUDIO\VC\TOOLS\MSVC\14.29.30133\INCLUDE\USE_ANSI.H
E:\VISUAL STUDIO\VC\TOOLS\MSVC\14.29.30133\INCLUDE\CSTDLIB
C:\PROGRAM FILES (X86)\WINDOWS KITS\10\INCLUDE\10.0.19041.0\UCRT\MATH.H
C:\PROGRAM FILES (X86)\WINDOWS KITS\10\INCLUDE\10.0.19041.0\UCRT\CORECRT_MATH.H
C:\PROGRAM FILES (X86)\WINDOWS KITS\10\INCLUDE\10.0.19041.0\UCRT\STDLIB.H
C:\PROGRAM FILES (X86)\WINDOWS KITS\10\INCLUDE\10.0.19041.0\UCRT\CORECRT_MALLOC.H
C:\PROGRAM FILES (X86)\WINDOWS KITS\10\INCLUDE\10.0.19041.0\UCRT\CORECRT_SEARCH.H
C:\PROGRAM FILES (X86)\WINDOWS KITS\10\INCLUDE\10.0.19041.0\UCRT\STDDEF.H
C:\PROGRAM FILES (X86)\WINDOWS KITS\10\INCLUDE\10.0.19041.0\UCRT\CORECRT_WSTDLIB.H
E:\VISUAL STUDIO\VC\TOOLS\MSVC\14.29.30133\INCLUDE\XTR1COMMON
E:\VISUAL STUDIO\VC\TOOLS\MSVC\14.29.30133\INCLUDE\INTRIN0.H
E:\VISUAL STUDIO\VC\TOOLS\MSVC\14.29.30133\INCLUDE\INTRIN0.INL.H
E:\VISUAL STUDIO\VC\TOOLS\MSVC\14.29.30133\INCLUDE\CSTDIO
C:\PROGRAM FILES (X86)\WINDOWS KITS\10\INCLUDE\10.0.19041.0\UCRT\STDIO.H
C:\PROGRAM FILES (X86)\WINDOWS KITS\10\INCLUDE\10.0.19041.0\UCRT\CORECRT_WSTDIO.H
C:\PROGRAM FILES (X86)\WINDOWS KITS\10\INCLUDE\10.0.19041.0\UCRT\CORECRT_STDIO_CONFIG.H
E:\VISUAL STUDIO\VC\TOOLS\MSVC\14.29.30133\INCLUDE\ITERATOR
E:\VISUAL STUDIO\VC\TOOLS\MSVC\14.29.30133\INCLUDE\IOSFWD
E:\VISUAL STUDIO\VC\TOOLS\MSVC\14.29.30133\INCLUDE\CSTRING
C:\PROGRAM FILES (X86)\WINDOWS KITS\10\INCLUDE\10.0.19041.0\UCRT\STRING.H
C:\PROGRAM FILES (X86)\WINDOWS KITS\10\INCLUDE\10.0.19041.0\UCRT\CORECRT_MEMORY.H
C:\PROGRAM FILES (X86)\WINDOWS KITS\10\INCLUDE\10.0.19041.0\UCRT\CORECRT_MEMCPY_S.H
C:\PROGRAM FILES (X86)\WINDOWS KITS\10\INCLUDE\10.0.19041.0\UCRT\ERRNO.H
E:\VISUAL STUDIO\VC\TOOLS\MSVC\14.29.30133\INCLUDE\VCRUNTIME_STRING.H
C:\PROGRAM FILES (X86)\WINDOWS KITS\10\INCLUDE\10.0.19041.0\UCRT\CORECRT_WSTRING.H
E:\VISUAL STUDIO\VC\TOOLS\MSVC\14.29.30133\INCLUDE\CWCHAR
C:\PROGRAM FILES (X86)\WINDOWS KITS\10\INCLUDE\10.0.19041.0\UCRT\WCHAR.H
C:\PROGRAM FILES (X86)\WINDOWS KITS\10\INCLUDE\10.0.19041.0\UCRT\CORECRT_WCONIO.H
C:\PROGRAM FILES (X86)\WINDOWS KITS\10\INCLUDE\10.0.19041.0\UCRT\CORECRT_WCTYPE.H
C:\PROGRAM FILES (X86)\WINDOWS KITS\10\INCLUDE\10.0.19041.0\UCRT\CORECRT_WDIRECT.H
C:\PROGRAM FILES (X86)\WINDOWS KITS\10\INCLUDE\10.0.19041.0\UCRT\CORECRT_WIO.H
C:\PROGRAM FILES (X86)\WINDOWS KITS\10\INCLUDE\10.0.19041.0\UCRT\CORECRT_SHARE.H
C:\PROGRAM FILES (X86)\WINDOWS KITS\10\INCLUDE\10.0.19041.0\UCRT\CORECRT_WPROCESS.H
C:\PROGRAM FILES (X86)\WINDOWS KITS\10\INCLUDE\10.0.19041.0\UCRT\CORECRT_WTIME.H
C:\PROGRAM FILES (X86)\WINDOWS KITS\10\INCLUDE\10.0.19041.0\UCRT\SYS\STAT.H
C:\PROGRAM FILES (X86)\WINDOWS KITS\10\INCLUDE\10.0.19041.0\UCRT\SYS\TYPES.H
E:\VISUAL STUDIO\VC\TOOLS\MSVC\14.29.30133\INCLUDE\XSTDDEF
E:\VISUAL STUDIO\VC\TOOLS\MSVC\14.29.30133\INCLUDE\CSTDDEF
E:\VISUAL STUDIO\VC\TOOLS\MSVC\14.29.30133\INCLUDE\INITIALIZER_LIST
E:\VISUAL STUDIO\VC\TOOLS\MSVC\14.29.30133\INCLUDE\XUTILITY
E:\VISUAL STUDIO\VC\TOOLS\MSVC\14.29.30133\INCLUDE\UTILITY
E:\VISUAL STUDIO\VC\TOOLS\MSVC\14.29.30133\INCLUDE\TYPE_TRAITS
E:\VISUAL STUDIO\VC\TOOLS\MSVC\14.29.30133\INCLUDE\CSTDINT
E:\VISUAL STUDIO\VC\TOOLS\MSVC\14.29.30133\INCLUDE\STDINT.H
E:\VISUAL STUDIO\VC\TOOLS\MSVC\14.29.30133\INCLUDE\STREAMBUF
E:\VISUAL STUDIO\VC\TOOLS\MSVC\14.29.30133\INCLUDE\XIOSBASE
C:\PROGRAM FILES (X86)\WINDOWS KITS\10\INCLUDE\10.0.19041.0\UCRT\SHARE.H
E:\VISUAL STUDIO\VC\TOOLS\MSVC\14.29.30133\INCLUDE\SYSTEM_ERROR
E:\VISUAL STUDIO\VC\TOOLS\MSVC\14.29.30133\INCLUDE\__MSVC_SYSTEM_ERROR_ABI.HPP
E:\VISUAL STUDIO\VC\TOOLS\MSVC\14.29.30133\INCLUDE\CERRNO
E:\VISUAL STUDIO\VC\TOOLS\MSVC\14.29.30133\INCLUDE\STDEXCEPT
E:\VISUAL STUDIO\VC\TOOLS\MSVC\14.29.30133\INCLUDE\EXCEPTION
C:\PROGRAM FILES (X86)\WINDOWS KITS\10\INCLUDE\10.0.19041.0\UCRT\MALLOC.H
E:\VISUAL STUDIO\VC\TOOLS\MSVC\14.29.30133\INCLUDE\VCRUNTIME_EXCEPTION.H
E:\VISUAL STUDIO\VC\TOOLS\MSVC\14.29.30133\INCLUDE\EH.H
C:\PROGRAM FILES (X86)\WINDOWS KITS\10\INCLUDE\10.0.19041.0\UCRT\CORECRT_TERMINATE.H
E:\VISUAL STUDIO\VC\TOOLS\MSVC\14.29.30133\INCLUDE\XSTRING
E:\VISUAL STUDIO\VC\TOOLS\MSVC\14.29.30133\INCLUDE\XMEMORY
E:\VISUAL STUDIO\VC\TOOLS\MSVC\14.29.30133\INCLUDE\LIMITS
E:\VISUAL STUDIO\VC\TOOLS\MSVC\14.29.30133\INCLUDE\CFLOAT
C:\PROGRAM FILES (X86)\WINDOWS KITS\10\INCLUDE\10.0.19041.0\UCRT\FLOAT.H
E:\VISUAL STUDIO\VC\TOOLS\MSVC\14.29.30133\INCLUDE\ISA_AVAILABILITY.H
E:\VISUAL STUDIO\VC\TOOLS\MSVC\14.29.30133\INCLUDE\NEW
E:\VISUAL STUDIO\VC\TOOLS\MSVC\14.29.30133\INCLUDE\XATOMIC.H
E:\VISUAL STUDIO\VC\TOOLS\MSVC\14.29.30133\INCLUDE\XCALL_ONCE.H
E:\VISUAL STUDIO\VC\TOOLS\MSVC\14.29.30133\INCLUDE\XERRC.H
E:\VISUAL STUDIO\VC\TOOLS\MSVC\14.29.30133\INCLUDE\ATOMIC
E:\VISUAL STUDIO\VC\TOOLS\MSVC\14.29.30133\INCLUDE\XTHREADS.H
E:\VISUAL STUDIO\VC\TOOLS\MSVC\14.29.30133\INCLUDE\XTIMEC.H
E:\VISUAL STUDIO\VC\TOOLS\MSVC\14.29.30133\INCLUDE\CTIME
C:\PROGRAM FILES (X86)\WINDOWS KITS\10\INCLUDE\10.0.19041.0\UCRT\TIME.H
E:\VISUAL STUDIO\VC\TOOLS\MSVC\14.29.30133\INCLUDE\XLOCALE
E:\VISUAL STUDIO\VC\TOOLS\MSVC\14.29.30133\INCLUDE\MEMORY
E:\VISUAL STUDIO\VC\TOOLS\MSVC\14.29.30133\INCLUDE\TYPEINFO
E:\VISUAL STUDIO\VC\TOOLS\MSVC\14.29.30133\INCLUDE\VCRUNTIME_TYPEINFO.H
E:\VISUAL STUDIO\VC\TOOLS\MSVC\14.29.30133\INCLUDE\XFACET
E:\VISUAL STUDIO\VC\TOOLS\MSVC\14.29.30133\INCLUDE\XLOCINFO
E:\VISUAL STUDIO\VC\TOOLS\MSVC\14.29.30133\INCLUDE\XLOCINFO.H
E:\VISUAL STUDIO\VC\TOOLS\MSVC\14.29.30133\INCLUDE\CCTYPE
C:\PROGRAM FILES (X86)\WINDOWS KITS\10\INCLUDE\10.0.19041.0\UCRT\CTYPE.H
E:\VISUAL STUDIO\VC\TOOLS\MSVC\14.29.30133\INCLUDE\CLOCALE
C:\PROGRAM FILES (X86)\WINDOWS KITS\10\INCLUDE\10.0.19041.0\UCRT\LOCALE.H
C:\PROGRAM FILES (X86)\WINDOWS KITS\10\INCLUDE\10.0.19041.0\UCRT\CONIO.H
E:\VISUAL STUDIO\VC\TOOLS\MSVC\14.29.30133\INCLUDE\IOMANIP
E:\VISUAL STUDIO\VC\TOOLS\MSVC\14.29.30133\INCLUDE\XLOCMON
E:\VISUAL STUDIO\VC\TOOLS\MSVC\14.29.30133\INCLUDE\XLOCTIME
